{
  "type": "service_account",
  "project_id": "discordpokebot-2ba08",
  "private_key_id": "f08fa888a6c9f5c7d53f76068a4de284c0f61178",
  "private_key": "-----BEGIN PRIVATE KEY-----\nMIIEvAIBADANBgkqhkiG9w0BAQEFAASCBKYwggSiAgEAAoIBAQCk4nbx3ej5AF5h\nqEcO7WcXdaMkQAuyu7fSpD7NgSwHOP15K/PDphSKhi0SUNvbZFZ2JP5ji0DdDFTp\nXb9rWC3clkoXhHY/qm4WPrNtC3Wwhm4VsW9mZBKxEqAPPuqAQu3Vig3AeI/ByzYI\nwdYL3X7UJJSDlF07rImArRIyZ2iMsi3Ix+b82SUu5GLKU/FZ1bq2NS+3ZWdGYyc/\naiIwERnv8TLTgPXeAwfA+A8cklFvi7Sjb8gZ1ya11GADY36RWJX8KN0b+s85dmNv\npciDIFJk8a1LL4otNlM80W6RuQl710rD0lFuLDJJFGp5t/svOXrg9r6uYAy/xn35\nDIYAKXYzAgMBAAECggEARI+SbAIdJKTdmffyDCf1LRESVDl5Y8mgpyr6nlMu7pXo\n+CCpjNobQnqGdU5ADVsMhLXfPZ8iyoedKyh7NvSEpWusxVikHtcMTZ2m2BnixxMu\n5UBRlR7Zkt2uxogf1FOAN8He9ABtrmSERGHtUiO44BeR1aC0n+Kfjmzo2yKam520\nhYfpR+eDc/CJU+jodWo0P1+3MoH8hI5Qt0YPQaxD3CFsOvaKZgI3JLeWC0jB2Z8S\nQ+gHyIAIr7XYKqTHZmwQc/8hWXQ9Zyxq6KudFRXQkKQqF+PvmeB/qGhpdBXOMCLm\n3wmOdSmMNHOD7PPuTpfzoMiiBwID4pECQlqr4DSG8QKBgQDN3VLnVX6P1cxxOt0t\nUJR3fqIMrT8aJ72jDebZ2XTfyiW0INMFFJQYZkz5vhFeOi0h49Cb3sGAMKI9HRer\nCCUVS2uEgvDQHSXzv72rJCudchClDzuiWTMGrjk2WRiTpOhY6YaP61NONXJq5hda\n5JYiRZf9sw6OQSmSPWkwThFpmwKBgQDNCjzSyfuMfpXveICd5JLt2NXIcyMM9kM9\n2pdCSn8NpNHoYOfQha1NIvkRCifOw9eDvKQbjRtLaxDTaT3k9c/el//VqoGyuQ6q\nxCCdDLYIR6xVXnnaJuy6seWs+fcjN/SP91t+7/qhmot6HnSfGlvuASwOLURCPpL0\njPfyGZ0bSQKBgBNgxwIBmTU+4cyyxskSMbeB0w0wbaUvonkrwNQ21PqP07a99D8h\nLcOSNaK4knf1L/RltmhFsp83dL4d8/FkheEYRVmm3bYpWD42iUsHz5c1en2fDnT8\nwoHZeoc0Ic0cE8byzHjVpPTSsR+A4yfqJnu5Y1I9PZyEY75hS3qBjsALAoGAQ1Mc\nO55kwXIDK1lm6fFWqVBsid/8X1IxLAstZW/unf1Di0jedSKfj9du7sBl58d4aWI0\nhHNlxfLG2JQS5a4s7gr8zxyob5XCEiJKDydQUhGurW1TF2V2j6rAHncJRgAmhmsT\nGPAVXKDRMWz0oBVYoCK0Y4dLhXDkcfYjp9PvOTkCgYAP77mBHTKqojl57dmG/TRL\nNWtVYCU0BxMNhhlBBW75jTI5KQza3MRy41k+NFv2+0LsqDc9DcJUnmgkMF4Pewx8\nsGciKusTS39CDNDCo5m0UPin60D7TJVfAH72M9TU5rx6BucWxg5Zb9cZaH+8cQH+\nlyxahrv2pknp3xDRSZXcyw==\n-----END PRIVATE KEY-----\n",
  "client_email": "firebase-adminsdk-ke6k2@discordpokebot-2ba08.iam.gserviceaccount.com",
  "client_id": "117121906547301767256",
  "auth_uri": "https://accounts.google.com/o/oauth2/auth",
  "token_uri": "https://oauth2.googleapis.com/token",
  "auth_provider_x509_cert_url": "https://www.googleapis.com/oauth2/v1/certs",
  "client_x509_cert_url": "https://www.googleapis.com/robot/v1/metadata/x509/firebase-adminsdk-ke6k2%40discordpokebot-2ba08.iam.gserviceaccount.com"
}
